<?xml version="1.0" encoding="UTF-8" standalone="no"?>
<!-- Created with Inkscape (http://www.inkscape.org/) -->

<svg
   xmlns:osb="http://www.openswatchbook.org/uri/2009/osb"
   xmlns:dc="http://purl.org/dc/elements/1.1/"
   xmlns:cc="http://creativecommons.org/ns#"
   xmlns:rdf="http://www.w3.org/1999/02/22-rdf-syntax-ns#"
   xmlns:svg="http://www.w3.org/2000/svg"
   xmlns="http://www.w3.org/2000/svg"
   xmlns:xlink="http://www.w3.org/1999/xlink"
   xmlns:sodipodi="http://sodipodi.sourceforge.net/DTD/sodipodi-0.dtd"
   xmlns:inkscape="http://www.inkscape.org/namespaces/inkscape"
   width="84.240982mm"
   height="65.903442mm"
   viewBox="0 0 84.240982 65.903443"
   version="1.1"
   id="svg4723"
   inkscape:version="0.92.4 5da689c313, 2019-01-14"
   sodipodi:docname="tree_zipper_2.svg">
  <defs
     id="defs4717">
    <linearGradient
       id="linearGradient4638"
       osb:paint="solid">
      <stop
         style="stop-color:#ffda06;stop-opacity:1;"
         offset="0"
         id="stop4636" />
    </linearGradient>
    <linearGradient
       gradientTransform="translate(90.912472,-60.396211)"
       inkscape:collect="always"
       xlink:href="#linearGradient4638"
       id="linearGradient4648-1"
       x1="21.887691"
       y1="98.29998"
       x2="35.542782"
       y2="98.29998"
       gradientUnits="userSpaceOnUse" />
    <linearGradient
       gradientTransform="translate(64.632826,-60.656763)"
       inkscape:collect="always"
       xlink:href="#linearGradient4638"
       id="linearGradient4648-1-0-8"
       x1="21.887691"
       y1="98.29998"
       x2="35.542782"
       y2="98.29998"
       gradientUnits="userSpaceOnUse" />
    <linearGradient
       gradientTransform="translate(36.011468,-61.53066)"
       inkscape:collect="always"
       xlink:href="#linearGradient4638"
       id="linearGradient4648-1-0-8-2"
       x1="21.887691"
       y1="98.29998"
       x2="35.542782"
       y2="98.29998"
       gradientUnits="userSpaceOnUse" />
  </defs>
  <sodipodi:namedview
     id="base"
     pagecolor="#ffffff"
     bordercolor="#666666"
     borderopacity="1.0"
     inkscape:pageopacity="0.0"
     inkscape:pageshadow="2"
     inkscape:zoom="1.4"
     inkscape:cx="124.869"
     inkscape:cy="26.770201"
     inkscape:document-units="mm"
     inkscape:current-layer="layer1"
     showgrid="false"
     fit-margin-top="0"
     fit-margin-left="0"
     fit-margin-right="0"
     fit-margin-bottom="0"
     inkscape:window-width="1920"
     inkscape:window-height="1016"
     inkscape:window-x="0"
     inkscape:window-y="27"
     inkscape:window-maximized="1" />
  <metadata
     id="metadata4720">
    <rdf:RDF>
      <cc:Work
         rdf:about="">
        <dc:format>image/svg+xml</dc:format>
        <dc:type
           rdf:resource="http://purl.org/dc/dcmitype/StillImage" />
        <dc:title />
      </cc:Work>
    </rdf:RDF>
  </metadata>
  <g
     inkscape:label="Calque 1"
     inkscape:groupmode="layer"
     id="layer1"
     transform="translate(-42.72317,-12.894036)">
    <path
       style="fill:none;stroke:#800000;stroke-width:3.03015161;stroke-linecap:butt;stroke-linejoin:miter;stroke-miterlimit:4;stroke-dasharray:none;stroke-opacity:1"
       d="M 49.172593,37.471898 H 106.43598"
       id="path5682"
       inkscape:connector-curvature="0" />
    <path
       style="fill:#800000;stroke:url(#linearGradient4648-1);stroke-width:1"
       d="m 126.44224,37.977297 c 0.53418,6.183772 -8.94967,9.295755 -12.29746,4.149157 -3.64735,-4.381237 0.69913,-11.830198 6.2592,-10.984057 3.2718,0.503625 6.17672,3.410314 6.03826,6.8349 z"
       id="path3713-7"
       inkscape:connector-curvature="0" />
    <path
       style="fill:#0000ff;stroke:url(#linearGradient4648-1-0-8);stroke-width:1"
       d="m 100.16259,37.716745 c 0.53418,6.183772 -8.94967,9.295756 -12.29746,4.149158 -3.64735,-4.381238 0.69913,-11.830199 6.2592,-10.984058 3.2718,0.503625 6.17672,3.410314 6.03826,6.8349 z"
       id="path3713-7-3-9"
       inkscape:connector-curvature="0" />
    <path
       style="fill:#0000ff;stroke:url(#linearGradient4648-1-0-8-2);stroke-width:1"
       d="m 71.541248,36.842848 c 0.53418,6.183772 -8.94968,9.295756 -12.29747,4.149158 -3.64735,-4.381238 0.69913,-11.830199 6.2592,-10.984058 3.27181,0.503625 6.17673,3.410314 6.03827,6.8349 z"
       id="path3713-7-3-9-2"
       inkscape:connector-curvature="0" />
    <path
       sodipodi:type="star"
       style="fill:#0000ff;fill-opacity:1;stroke:#000000;stroke-width:1.68753564;stroke-miterlimit:4;stroke-dasharray:none;stroke-opacity:1"
       id="path5644"
       sodipodi:sides="3"
       sodipodi:cx="2.5815065"
       sodipodi:cy="45.96917"
       sodipodi:r1="22.211643"
       sodipodi:r2="10.524799"
       sodipodi:arg1="0.51825564"
       sodipodi:arg2="1.5654532"
       inkscape:flatsided="true"
       inkscape:rounded="0"
       inkscape:randomized="0.018473392"
       d="M 21.739863,56.923407 -16.943574,56.906627 2.7251049,24.012088 Z"
       inkscape:transform-center-x="-0.00823992"
       inkscape:transform-center-y="-5.1830179"
       transform="translate(61.15397,21.029672)" />
    <path
       sodipodi:type="star"
       style="fill:#0000ff;fill-opacity:1;stroke:#000000;stroke-width:0.82745558;stroke-miterlimit:4;stroke-dasharray:none;stroke-opacity:1"
       id="path5644-9"
       sodipodi:sides="3"
       sodipodi:cx="1.2657995"
       sodipodi:cy="22.540234"
       sodipodi:r1="10.891116"
       sodipodi:r2="5.1606636"
       sodipodi:arg1="0.51825564"
       sodipodi:arg2="1.5654532"
       inkscape:flatsided="true"
       inkscape:rounded="0"
       inkscape:randomized="0.018473392"
       d="M 10.586472,27.867749 -8.2474519,28.144562 1.1036165,11.817884 Z"
       inkscape:transform-center-x="0.0023416067"
       inkscape:transform-center-y="2.4028858"
       transform="matrix(1,0,0,-1,92.342375,41.46295)" />
  </g>
</svg>
